{
    "default": {
        "api_url": "http://iis.applelgeu.com:48082//AWWebAPI/api/aw/awa",
        "style": {
            "URL_IMAGEN_FONDO": "https://i.pinimg.com/originals/f2/f0/cb/f2f0cb34e485e4be0407b3f1e588f187.jpg",
            "URL_LOGO_MARCA": "https://www.w3schools.com/html/images/picture.jpg",
            "COLOR_FONDO_CUADRO_FORMULARIO": "#808080",
            "COLOR_BOTON": "#ffffff",
            "COLOR_TEXTO_BOTON": "red"  
        },
        "hotels": [
            {"id": "H20", "value": "Hotel 1"}
        ]
              
    },
    "other": {
        "api_url": "http://iis.applelgeu.com:48082//AWWebAPI/api/aw/awa",
        "style": {
            "URL_IMAGEN_FONDO": "https://i.pinimg.com/originals/f2/f0/cb/f2f0cb34e485e4be0407b3f1e588f187.jpg",
            "URL_LOGO_MARCA": "https://previews.123rf.com/images/ikalvi/ikalvi1712/ikalvi171200406/92424242-logotipo-para-la-agencia-de-viajes-tropical-resort-beach-hotel-spa-s%C3%ADmbolo-de-vacaciones-de-verano-log.jpg",
            "COLOR_FONDO_CUADRO_FORMULARIO": "#666666",
            "COLOR_BOTON": "#ff8800",
            "COLOR_TEXTO_BOTON": "blue"  
        },
        "hotels": [
            {"id": "H20", "value": "Hotel 1"}
        ]  
    }
}